SOCS0100_MDZF4
…
# Data-wrangling 3 - Rate of weekly case and death increase
# Calculating the rate of case and death increase rates in each location can help us understand how good or bad the Covid-19 situation was in each location at any given date.

data <- data %>% # Store the results of these data-wrangling in the original dataframe
  arrange(location,date)%>% # Arrange the data by location and date
  group_by(location)%>% # Group data by location
  mutate(weekly_case_increase = ((weekly_cases - lag(weekly_cases)) / lag(weekly_cases)) *100, # Calculate the weekly case increase rate of all locations as a percentage
         weekly_death_increase = ((weekly_deaths - lag(weekly_deaths)) / lag(weekly_deaths)) *100) # Calculate the weekly death increase rate of all locations as a percentage

data %>%
  select(date,weekly_case_increase,weekly_death_increase) # Select the date, weekly case increase rate and weekly death increase rate variables to be displayed in the output

Adding missing grouping variables: `location`

# A tibble: 411,804 × 4
# Groups:   location [246]
   location    date       weekly_case_increase weekly_death_increase
   <chr>       <chr>                     <dbl>                 <dbl>
 1 Afghanistan 2020-01-05                   NA                    NA
 2 Afghanistan 2020-01-06                   NA                    NA
 3 Afghanistan 2020-01-07                   NA                    NA
 4 Afghanistan 2020-01-08                   NA                    NA
 5 Afghanistan 2020-01-09                   NA                    NA
 6 Afghanistan 2020-01-10                   NA                    NA
 7 Afghanistan 2020-01-11                  NaN                   NaN
 8 Afghanistan 2020-01-12                  NaN                   NaN
 9 Afghanistan 2020-01-13                  NaN                   NaN
10 Afghanistan 2020-01-14                  NaN                   NaN
# ℹ 411,794 more rows

# Data-wrangling 4 - Case Fatality Rate (CFR)
# The case fatality rate, which is measured in terms of total deaths over the total number of cases, can help us understand how fatal the coronavirus is in each location around the world.

data <- data %>% # Store the results of these data-wrangling in the original dataframe
  arrange(date)%>% # Arrange the existing data by date
  group_by(location)%>% # Group by location, such that countries would be in alphabetical order
  mutate(cfr = (total_deaths/total_cases) * 100) # Calculate the CFR as a percentage

data %>% 
  select(date,total_deaths,total_cases,cfr) # Select the date, total deaths, total cases and CFR variables to be displayed in the output

Adding missing grouping variables: `location`

# A tibble: 411,804 × 5
# Groups:   location [246]
   location            date       total_deaths total_cases   cfr
   <chr>               <chr>             <int>       <int> <dbl>
 1 Afghanistan         2020-01-05            0           0   NaN
 2 Africa              2020-01-05            0           0   NaN
 3 Albania             2020-01-05            0           0   NaN
 4 Algeria             2020-01-05            0           0   NaN
 5 American Samoa      2020-01-05            0           0   NaN
 6 Andorra             2020-01-05            0           0   NaN
 7 Angola              2020-01-05            0           0   NaN
 8 Anguilla            2020-01-05            0           0   NaN
 9 Antigua and Barbuda 2020-01-05            0           0   NaN
10 Argentina           2020-01-05            0           0   NaN
# ℹ 411,794 more rows
…
  # List countries with CFR above x% - change x by changing the number below (here, the percentage is 2%)
countries_cfr_above_x <- countries_cfr_above_threshold(data, 2)

  # Print result
countries_cfr_above_x

# A tibble: 40 × 5
# Groups:   location [40]
   location               total_cases total_deaths date         cfr
   <chr>                        <int>        <int> <chr>      <dbl>
 1 Yemen                        11945         2159 2024-08-04 18.1 
 2 Sudan                        63993         5046 2024-08-04  7.89
 3 Syria                        57423         3163 2024-08-04  5.51
 4 Somalia                      27334         1361 2024-08-04  4.98
 5 Peru                       4526977       220975 2024-08-04  4.88
 6 Egypt                       516023        24830 2024-08-04  4.81
 7 Mexico                     7619458       334551 2024-08-04  4.39
 8 Bosnia and Herzegovina      403666        16392 2024-08-04  4.06
 9 Liberia                       7930          294 2024-08-04  3.71
10 Afghanistan                 235214         7998 2024-08-04  3.40
# ℹ 30 more rows
…
